Part 1
…
## color by cluster
(umap_df<- bind_cols(seurat_clusters = pbmc@meta.data$seurat_clusters,
          Embeddings(pbmc, reduction = "umap") %>% as.data.frame()))

# A tibble: 4,595 x 3
   seurat_clusters UMAP_1  UMAP_2
   <fct>            <dbl>   <dbl>
 1 1                15.4   14.4  
 2 1                17.2   17.5  
 3 5                21.1    1.47 
 4 0                 3.56  14.6  
 5 1                15.5   16.9  
 6 4                 4.70  -1.75 
 7 4                 4.51   0.586
 8 3                 4.67   5.38 
 9 1                17.6   17.6  
10 2                 6.00   6.05 
# … with 4,585 more rows
…
Calculating cluster 8

Calculating cluster 9

Calculating cluster 10

Calculating cluster 11

Calculating cluster 12

Calculating cluster 13

pbmc.markers %>% group_by(cluster) %>% top_n(n = 2, wt = avg_logFC)

# A tibble: 28 x 7
# Groups:   cluster [14]
       p_val avg_logFC pct.1 pct.2 p_val_adj cluster gene   
       <dbl>     <dbl> <dbl> <dbl>     <dbl> <fct>   <chr>  
 1 0.            0.943 0.856 0.227 0.        0       CCR7   
 2 0.            0.889 0.802 0.195 0.        0       TRABD2A
 3 0.            4.14  1     0.123 0.        1       S100A8 
 4 0.            4.13  1     0.233 0.        1       S100A9 
 5 1.25e-224     1.26  0.925 0.43  2.35e-220 2       IL7R   
 6 2.46e-198     1.23  0.644 0.146 4.62e-194 2       KLRB1  
 7 1.29e-269     2.00  0.988 0.209 2.42e-265 3       CCL5   
 8 1.20e-164     1.61  0.576 0.085 2.26e-160 3       GZMK   
 9 0.            3.46  0.993 0.119 0.        4       GNLY   
10 1.98e-288     2.90  1     0.224 3.72e-284 4       NKG7   
# … with 18 more rows
…
